[INFO ] 2017-03-10 03:33:11 controller.PerformSearch:240 - SRCH THR MHD 05Feb
[INFO ] 2017-03-10 08:03:42 controller.PerformSearch:240 - SRCH THR MHD 05Feb
[INFO ] 2017-03-10 08:03:49 controller.PerformRes:41 - TMPRES 452#THR#MHD#05Feb 3000 2000 1000
[INFO ] 2017-03-10 08:08:16 controller.PerformSearch:240 - SRCH THR MHD 05Feb
[INFO ] 2017-03-10 08:08:24 controller.PerformRes:41 - TMPRES 452#THR#MHD#05Feb 3000 2000 1000
[INFO ] 2017-03-10 08:15:40 controller.PerformSearch:240 - SRCH THR MHD 05Feb
[INFO ] 2017-03-10 08:15:46 controller.PerformRes:41 - TMPRES 452#THR#MHD#05Feb 3000 2000 1000
[INFO ] 2017-03-10 08:16:51 controller.PerformSearch:240 - SRCH THR MHD 05Feb
[INFO ] 2017-03-10 08:16:56 controller.PerformRes:41 - TMPRES 452#THR#MHD#05Feb 3000 2000 1000
[INFO ] 2017-03-10 08:55:51 controller.PerformSearch:240 - SRCH THR MHD 05Feb
[INFO ] 2017-03-10 08:55:56 controller.PerformRes:41 - TMPRES 452#THR#MHD#05Feb 3000 2000 1000
[INFO ] 2017-03-10 08:58:39 controller.PerformSearch:240 - SRCH THR MHD 05Feb
[INFO ] 2017-03-10 08:58:44 controller.PerformRes:41 - TMPRES 452#THR#MHD#05Feb 3000 2000 1000
[INFO ] 2017-03-10 09:04:33 controller.PerformSearch:240 - SRCH THR MHD 05Feb
[INFO ] 2017-03-10 09:04:38 controller.PerformRes:41 - TMPRES 452#THR#MHD#05Feb 3000 2000 1000
[INFO ] 2017-03-10 09:07:13 controller.PerformSearch:240 - SRCH THR MHD 05Feb
[INFO ] 2017-03-10 09:07:16 controller.PerformRes:41 - TMPRES 452#THR#MHD#05Feb 3000 2000 1000
[INFO ] 2017-03-10 09:17:59 controller.PerformSearch:244 - SRCH THR MHD 05Feb
[INFO ] 2017-03-10 09:18:06 controller.PerformRes:44 - TMPRES 452#THR#MHD#05Feb 3000 2000 1000
[INFO ] 2017-03-10 09:20:25 controller.PerformSearch:244 - SRCH THR MHD 05Feb
[INFO ] 2017-03-10 09:22:23 controller.PerformSearch:244 - SRCH THR MHD 05Feb
[INFO ] 2017-03-10 09:22:26 controller.PerformRes:44 - TMPRES 452#THR#MHD#05Feb 3000 2000 1000
[INFO ] 2017-03-10 09:24:07 controller.PerformSearch:244 - SRCH THR MHD 05Feb
[INFO ] 2017-03-10 09:24:10 controller.PerformRes:44 - TMPRES 452#THR#MHD#05Feb 3000 2000 1000
[INFO ] 2017-03-10 21:30:06 controller.PerformSearch:246 - SRCH THR MHD 05Feb
[INFO ] 2017-03-10 21:33:36 controller.PerformSearch:247 - SRCH THR MHD 05Fab
[INFO ] 2017-03-10 21:35:04 controller.PerformSearch:247 - SRCH THR MHD 05Feb
[INFO ] 2017-03-10 21:38:46 controller.PerformSearch:249 - SRCH THR MHD 05Feb
[INFO ] 2017-03-10 21:41:53 controller.PerformSearch:250 - SRCH THR MHD 05Feb
[INFO ] 2017-03-10 21:45:06 controller.PerformSearch:249 - SRCH THR MHD 05Feb
[INFO ] 2017-03-10 21:46:33 controller.PerformSearch:245 - SRCH THR MHD 05Feb
[INFO ] 2017-03-10 21:46:48 controller.PerformRes:44 - TMPRES 452#THR#MHD#05Feb 3000 2000 1000
[INFO ] 2017-03-10 21:52:10 controller.PerformSearch:245 - SRCH THR MHD 05Feb
[INFO ] 2017-03-10 22:10:28 controller.PerformSearch:245 - SRCH THR MHD 05Feb
[INFO ] 2017-03-10 22:10:33 controller.PerformRes:44 - TMPRES 452#THR#MHD#05Feb 3000 2000 1000
[INFO ] 2017-03-10 22:12:15 controller.PerformSearch:245 - SRCH THR MHD 05Feb
[INFO ] 2017-03-10 22:12:19 controller.PerformRes:44 - TMPRES 452#THR#MHD#05Feb 3000 2000 1000
[INFO ] 2017-03-10 22:17:17 controller.PerformSearch:245 - SRCH THR MHD 05Feb
[INFO ] 2017-03-10 22:17:21 controller.PerformRes:44 - TMPRES 452#THR#MHD#05Feb 3000 2000 1000
[INFO ] 2017-03-10 22:19:50 controller.PerformSearch:241 - SRCH THR MHD 05Feb
[INFO ] 2017-03-10 22:19:54 controller.PerformRes:44 - TMPRES 452#THR#MHD#05Feb 3000 2000 1000
[INFO ] 2017-03-10 22:19:57 controller.PerformSearch:241 - SRCH THR MHD 05Feb
[INFO ] 2017-03-10 22:21:59 controller.PerformSearch:241 - SRCH THR MHD 05Feb
[INFO ] 2017-03-10 22:22:03 controller.PerformRes:44 - TMPRES 452#THR#MHD#05Feb 3000 2000 1000
[INFO ] 2017-03-10 23:09:45 controller.PerformSearch:241 - SRCH THR MHD 05Feb
[INFO ] 2017-03-10 23:10:29 controller.PerformSearch:241 - SRCH THR MHD 05Feb
[INFO ] 2017-03-10 23:11:17 controller.PerformSearch:241 - SRCH THR MHD 05Feb
[INFO ] 2017-03-10 23:13:59 controller.PerformSearch:241 - SRCH THR MHD 05Feb
[INFO ] 2017-03-10 23:15:52 controller.PerformSearch:241 - SRCH null null null
[INFO ] 2017-03-10 23:15:56 controller.PerformSearch:241 - SRCH null null null
[INFO ] 2017-03-10 23:15:59 controller.PerformSearch:241 - SRCH null null null
[INFO ] 2017-03-10 23:16:35 controller.PerformSearch:241 - SRCH THR MHD 
[INFO ] 2017-03-10 23:17:24 controller.PerformSearch:241 - SRCH THR MHD 05Feb
[INFO ] 2017-03-10 23:17:35 controller.PerformRes:44 - TMPRES 452#THR#MHD#05Feb 3000 2000 1000
[INFO ] 2017-03-10 23:23:31 controller.PerformSearch:241 - SRCH THR MHD 05Feb
[INFO ] 2017-03-10 23:24:25 controller.PerformRes:44 - TMPRES 452#THR#MHD#05Feb 3000 2000 1000
[INFO ] 2017-03-10 23:34:44 controller.PerformSearch:241 - SRCH THR MHD 05Feb
[INFO ] 2017-03-10 23:34:51 controller.PerformRes:44 - TMPRES 452#THR#MHD#05Feb 3000 2000 1000
[INFO ] 2017-03-10 23:41:42 controller.PerformSearch:241 - SRCH THR MHD 05Feb
[INFO ] 2017-03-10 23:41:47 controller.PerformRes:44 - TMPRES 452#THR#MHD#05Feb 3000 2000 1000
[INFO ] 2017-03-10 23:44:03 controller.PerformSearch:241 - SRCH THR MHD 05Feb
[INFO ] 2017-03-10 23:44:07 controller.PerformRes:44 - TMPRES 452#THR#MHD#05Feb 3000 2000 1000
[INFO ] 2017-03-10 23:57:07 controller.PerformSearch:241 - SRCH THR MHD 05Feb
[INFO ] 2017-03-10 23:57:11 controller.PerformRes:44 - TMPRES 452#THR#MHD#05Feb 3000 2000 1000
[INFO ] 2017-03-10 23:57:34 controller.IssueTicket:50 - RES452#THR#MHD#05Feb 9707f68a-1bc3-e36c-3b80-464d91872918 1 1 1
[INFO ] 2017-03-10 23:57:34 controller.IssueTicket:63 - FINRES9707f68a-1bc3-e36c-3b80-464d91872918 c943073c-05b3-9d02-0a2c-05f48bd5acad 6000
[INFO ] 2017-03-15 14:21:53 controller.PerformSearch:241 - SRCH THR THR 05Feb
[INFO ] 2017-03-15 14:22:03 controller.PerformSearch:241 - SRCH THR MHD 05Feb
[INFO ] 2017-03-15 14:22:06 controller.PerformRes:44 - TMPRES 452#THR#MHD#05Feb 3000 2000 1000
[INFO ] 2017-03-15 14:30:29 controller.PerformSearch:241 - SRCH THR MHD 05Feb
[INFO ] 2017-03-15 14:30:35 controller.PerformRes:44 - TMPRES 452#THR#MHD#05Feb 3000 2000 1000
[INFO ] 2017-03-15 14:31:50 controller.PerformSearch:241 - SRCH THR MHD 05Feb
[INFO ] 2017-03-15 14:31:57 controller.PerformRes:44 - TMPRES 452#THR#MHD#05Feb 3000 2000 1000
[INFO ] 2017-03-15 14:37:50 controller.PerformSearch:241 - SRCH THR MHD 05Feb
[INFO ] 2017-03-15 14:37:53 controller.PerformRes:44 - TMPRES 452#THR#MHD#05Feb 3000 2000 1000
[INFO ] 2017-03-15 14:40:41 controller.PerformSearch:241 - SRCH THR MHD 05Feb
[INFO ] 2017-03-15 14:40:44 controller.PerformRes:44 - TMPRES 452#THR#MHD#05Feb 3000 2000 1000
[INFO ] 2017-03-15 14:58:13 controller.PerformSearch:241 - SRCH THR MHD 
[INFO ] 2017-03-15 14:58:31 controller.PerformSearch:241 - SRCH THR MHD 05Feb
[INFO ] 2017-03-15 14:59:05 controller.PerformSearch:241 - SRCH THR MHD 05Feb
[INFO ] 2017-03-15 15:00:01 controller.PerformRes:44 - TMPRES 452#THR#MHD#05Feb 3000 2000 1000
[INFO ] 2017-03-15 15:02:43 controller.PerformSearch:241 - SRCH THR MHD 05Feb
[INFO ] 2017-03-15 15:02:49 controller.PerformRes:44 - TMPRES 452#THR#MHD#05Feb 3000 2000 1000
[INFO ] 2017-03-15 15:07:23 controller.PerformSearch:241 - SRCH THR MHD 05Feb
[INFO ] 2017-03-15 15:07:39 controller.PerformRes:44 - TMPRES 452#THR#MHD#05Feb 3000 2000 1000
[INFO ] 2017-03-15 15:09:38 controller.PerformSearch:241 - SRCH THR MHD 
[INFO ] 2017-03-15 15:09:53 controller.PerformSearch:241 - SRCH THR MHD 05Feb
[INFO ] 2017-03-15 15:10:28 controller.PerformSearch:241 - SRCH THR MHD 05Feb
[INFO ] 2017-03-15 15:10:32 controller.PerformRes:44 - TMPRES 452#THR#MHD#05Feb 3000 2000 1000
[INFO ] 2017-03-15 15:13:38 controller.PerformSearch:241 - SRCH THR MHD 05Feb
[INFO ] 2017-03-15 15:13:42 controller.PerformRes:44 - TMPRES 452#THR#MHD#05Feb 3000 2000 1000
[INFO ] 2017-03-15 15:15:33 controller.PerformSearch:241 - SRCH THR MHD 05Feb
[INFO ] 2017-03-15 15:15:37 controller.PerformRes:44 - TMPRES 452#THR#MHD#05Feb 3000 2000 1000
[INFO ] 2017-03-15 15:17:32 controller.PerformSearch:241 - SRCH THR MHD 05Feb
[INFO ] 2017-03-15 15:17:36 controller.PerformRes:44 - TMPRES 452#THR#MHD#05Feb 3000 2000 1000
[INFO ] 2017-03-15 15:20:21 controller.PerformSearch:241 - SRCH THR MHD 05Feb
[INFO ] 2017-03-15 15:20:26 controller.PerformRes:44 - TMPRES 452#THR#MHD#05Feb 3000 2000 1000
[INFO ] 2017-03-17 21:38:41 controller.PerformSearch:241 - SRCH THR MHD 05Feb
[INFO ] 2017-03-17 21:39:16 controller.PerformRes:44 - TMPRES 822#THR#MHD#05Feb 3000 2000 1000
[INFO ] 2017-03-17 21:43:23 controller.PerformSearch:241 - SRCH THR MHD 05Feb
[INFO ] 2017-03-17 21:43:29 controller.PerformRes:44 - TMPRES 822#THR#MHD#05Feb 3000 2000 1000
[INFO ] 2017-03-17 21:46:24 controller.PerformSearch:241 - SRCH THR MHD 05Feb
[INFO ] 2017-03-17 21:46:29 controller.PerformRes:44 - TMPRES 822#THR#MHD#05Feb 3000 2000 1000
[INFO ] 2017-03-17 21:51:06 controller.PerformSearch:241 - SRCH THR MHD 05Feb
[INFO ] 2017-03-17 21:51:12 controller.PerformRes:44 - TMPRES 822#THR#MHD#05Feb 3000 2000 1000
[INFO ] 2017-03-17 22:02:54 controller.PerformSearch:241 - SRCH THR MHD 05Feb
[INFO ] 2017-03-17 22:03:00 controller.PerformRes:44 - TMPRES 822#THR#MHD#05Feb 3000 2000 1000
[INFO ] 2017-03-17 22:10:16 controller.PerformSearch:241 - SRCH THR MHD 05Feb
[INFO ] 2017-03-17 22:10:22 controller.PerformRes:44 - TMPRES 822#THR#MHD#05Feb 3000 2000 1000
[INFO ] 2017-03-17 22:16:02 controller.PerformSearch:241 - SRCH THR MHD 05Feb
[INFO ] 2017-03-17 22:16:09 controller.PerformRes:44 - TMPRES 822#THR#MHD#05Feb 3000 2000 1000
[INFO ] 2017-03-17 22:19:18 controller.PerformSearch:241 - SRCH THR MHD 05Feb
[INFO ] 2017-03-17 22:19:24 controller.PerformRes:44 - TMPRES 822#THR#MHD#05Feb 3000 2000 1000
[INFO ] 2017-03-17 22:21:16 controller.PerformSearch:241 - SRCH THR MHD 05Feb
[INFO ] 2017-03-17 22:29:01 controller.PerformSearch:241 - SRCH THR MHD 05Feb
[INFO ] 2017-03-17 22:30:10 controller.PerformSearch:241 - SRCH THR MHD 05Feb
[INFO ] 2017-03-17 22:30:16 controller.PerformRes:44 - TMPRES 822#THR#MHD#05Feb 3000 2000 1000
[INFO ] 2017-03-17 22:32:52 controller.PerformSearch:241 - SRCH THR MHD 05Feb
[INFO ] 2017-03-17 22:32:57 controller.PerformRes:44 - TMPRES 822#THR#MHD#05Feb 3000 2000 1000
[INFO ] 2017-03-17 22:34:57 controller.PerformSearch:241 - SRCH THR MHD 05Feb
[INFO ] 2017-03-17 22:35:07 controller.PerformRes:44 - TMPRES 822#THR#MHD#05Feb 3000 2000 1000
[INFO ] 2017-03-17 22:36:57 controller.PerformSearch:241 - SRCH THR MHD 05Feb
[INFO ] 2017-03-17 22:37:04 controller.PerformRes:44 - TMPRES 822#THR#MHD#05Feb 3000 2000 1000
[INFO ] 2017-03-17 22:46:07 controller.PerformSearch:241 - SRCH THR MHD 05Feb
[INFO ] 2017-03-17 22:46:15 controller.PerformRes:44 - TMPRES 822#THR#MHD#05Feb 3000 2000 1000
[INFO ] 2017-03-17 22:46:39 controller.IssueTicket:59 - RES822#THR#MHD#05Feb 788cbb86-7e93-c8ac-755c-bceaf0d7e5d2 1 1 1
[INFO ] 2017-03-17 22:46:39 controller.IssueTicket:72 - FINRES788cbb86-7e93-c8ac-755c-bceaf0d7e5d2 386a0ac7-8256-dfb0-2534-454b8adae919 6000
[INFO ] 2017-03-17 22:49:29 controller.PerformSearch:241 - SRCH THR MHD 05Feb
[INFO ] 2017-03-17 22:49:36 controller.PerformRes:44 - TMPRES 822#THR#MHD#05Feb 3000 2000 1000
[INFO ] 2017-03-17 22:50:14 controller.IssueTicket:59 - RES822#THR#MHD#05Feb 3069633b-4ed2-b53b-1ba4-5a3df7684c77 1 1 1
[INFO ] 2017-03-17 22:50:14 controller.IssueTicket:72 - FINRES3069633b-4ed2-b53b-1ba4-5a3df7684c77 4dad0545-5d74-ee2e-4ddc-96b07dddd12c 6000
[INFO ] 2017-03-17 23:05:58 controller.PerformSearch:255 - SRCH THR MHD 05Feb
[INFO ] 2017-03-17 23:06:16 controller.PerformRes:44 - TMPRES 822#THR#MHD#05Feb 3000 2000 1000
[INFO ] 2017-03-17 23:09:19 controller.PerformSearch:255 - SRCH THR MHD 05Feb
[INFO ] 2017-03-17 23:09:27 controller.PerformRes:44 - TMPRES 822#THR#MHD#05Feb 3000 2000 1000
[INFO ] 2017-03-17 23:23:30 controller.PerformSearch:255 - SRCH THR MHD 05Feb
[INFO ] 2017-03-17 23:23:38 controller.PerformRes:44 - TMPRES 822#THR#MHD#05Feb 3000 2000 1000
[INFO ] 2017-03-17 23:24:01 controller.IssueTicket:59 - RES822#THR#MHD#05Feb 84d11fe3-c54d-291e-93e6-b9f06d49c002 1 1 1
